%YAML 1.1
%TAG !u! tag:unity3d.com,2011:
--- !u!114 &11400000
MonoBehaviour:
  m_ObjectHideFlags: 0
  m_PrefabParentObject: {fileID: 0}
  m_PrefabInternal: {fileID: 0}
  m_GameObject: {fileID: 0}
  m_Enabled: 1
  m_EditorHideFlags: 0
  m_Script: {fileID: 11500000, guid: e9a6f3378260e53498c65fd8a71709bd, type: 3}
  m_Name: New Level
  m_EditorClassIdentifier: 
  loadFromFolder: 0
  lvls:
  - numberOfEnemies: 1
    enemies:
    - transform: {fileID: 4361076567619802, guid: 4d17174de35cf6f4fade5650fcfb6a4c,
        type: 2}
      propability: 10
    - transform: {fileID: 4118571868495994, guid: 66db415e94511b942824d1fc18eda5ec,
        type: 2}
      propability: 1
    - transform: {fileID: 4169158134133758, guid: 85b4ce65f3a9ed945a815ae65efd380b,
        type: 2}
      propability: 1
    - transform: {fileID: 4006537209521878, guid: cdb6380adf0897b418a84e433d4a323d,
        type: 2}
      propability: 3
